Division,WeightClassKg,Place,Name,Team,BodyweightKg,Best3SquatKg,Best3BenchKg,Best3DeadliftKg,TotalKg,Equipment,Event,Sex,BirthDate
Boys,51.71,1,Issac Saldivar,Kyle Lehman,51.71,176.9,88.45,165.56,430.91,Unlimited,SBD,M,
Boys,51.71,2,Isaac Compaore,Killeen Harker Heights,51.71,117.93,72.57,154.22,344.73,Unlimited,SBD,M,
Boys,51.71,3,Stephen Ray,Giddings,50.89,117.93,86.18,127.01,331.12,Unlimited,SBD,M,
Boys,51.71,4,Cody Jarrett,Killeen Harker Heights,51.71,102.06,70.31,124.74,297.1,Unlimited,SBD,M,
Boys,51.71,5,Ethan Miller,Bastrop,46.63,79.38,49.9,79.38,208.65,Unlimited,SBD,M,
Boys,55.79,1,Gabriel Cheatum,Universal City Randolph,55.25,136.08,88.45,158.76,383.29,Unlimited,SBD,M,
Boys,55.79,2,Miguel Nino,Taylor,55.07,136.08,70.31,165.56,371.95,Unlimited,SBD,M,
Boys,55.79,3,Landon Minjarez,Lago Vista,54.7,129.27,54.43,131.54,315.25,Unlimited,SBD,M,
Boys,55.79,4,Travis Steubing,Smithville,54.07,90.72,70.31,131.54,292.57,Unlimited,SBD,M,
Boys,55.79,5,Zayden Cox,Buda Hays,52.71,102.06,65.77,122.47,290.3,Unlimited,SBD,M,
Boys,55.79,DQ,Ray Martinez,Buda Hays,55.43,111.13,72.57,,,Unlimited,SBD,M,
Boys,55.79,DQ,Kiyoshi Shellhammer,Buda Hays,55.7,,,,,Unlimited,SBD,M,
Boys,55.79,DQ,Jakob Caya,Buda Johnson,54.43,,,,,Unlimited,SBD,M,
Boys,55.79,DQ,Jordan Puerto,Manor,54.61,,,,,Unlimited,SBD,M,
Boys,55.79,DQ,Patrick Isaak,Buda Johnson,55.79,,,,,Unlimited,SBD,M,
Boys,55.79,DQ,Jayden Earls,Pflugerville Connally,55.79,,,,,Unlimited,SBD,M,
Boys,59.87,1,Jody Mendosa,Buda Johnson,58.97,149.69,95.25,172.37,417.3,Unlimited,SBD,M,
Boys,59.87,2,Gilberto Jaimes,Smithville,59.87,151.95,88.45,172.37,412.77,Unlimited,SBD,M,
Boys,59.87,3,James Clifford,College Station,59.24,145.15,77.11,176.9,399.16,Unlimited,SBD,M,
Boys,59.87,4,Zaiden Campos,Comfort,59.33,136.08,92.99,165.56,394.63,Unlimited,SBD,M,
Boys,59.87,5,Wyatt Deem,Comfort,59.42,147.42,102.06,142.88,392.36,Unlimited,SBD,M,
Boys,59.87,6,Cameron Morris,Smithville,59.78,140.61,74.84,151.95,367.41,Unlimited,SBD,M,
Boys,59.87,7,Cooper Peacock,Smithville,59.6,122.47,77.11,142.88,342.46,Unlimited,SBD,M,
Boys,59.87,DQ,Christian Reyes,Luling,59.87,,,,,Unlimited,SBD,M,
Boys,59.87,DQ,Gio Ramirez,Kyle Lehman,59.87,,,,,Unlimited,SBD,M,
Boys,67.13,1,John Tan,College Station,66.68,226.8,138.35,204.12,569.26,Unlimited,SBD,M,
Boys,67.13,2,Owen Garcia,Pflugerville Connally,66.68,181.44,165.56,183.7,530.7,Unlimited,SBD,M,
Boys,67.13,3,Locke Holland,College Station,66.59,199.58,108.86,192.78,501.22,Unlimited,SBD,M,
Boys,67.13,4,Christian Osorio,Smithville,66.22,176.9,99.79,181.44,458.13,Unlimited,SBD,M,
Boys,67.13,5,Darian Deleon,San Marcos,65.32,165.56,88.45,176.9,430.91,Unlimited,SBD,M,
Boys,67.13,6,Devon Utecht,Smithville,65.77,138.35,102.06,183.7,424.11,Unlimited,SBD,M,
Boys,67.13,7,Landen Kallfelz,Buda Hays,64.23,149.69,77.11,167.83,394.63,Unlimited,SBD,M,
Boys,67.13,8,Joaquin Arguelo,Austin Anderson,66.22,142.88,79.38,163.29,385.55,Unlimited,SBD,M,
Boys,67.13,9,Victor Zarate,Comfort,64.86,136.08,68.04,170.1,374.21,Unlimited,SBD,M,
Boys,67.13,10,Bryce Leal,Luling,63.96,124.74,88.45,151.95,365.14,Unlimited,SBD,M,
Boys,67.13,11,Jeremiah Hightower-Santos,Buda Hays,64.41,131.54,83.91,142.88,358.34,Unlimited,SBD,M,
Boys,67.13,12,Magnus Stahl,Manor New Tech,65.86,124.74,70.31,154.22,349.27,Unlimited,SBD,M,
Boys,67.13,13,Tyler Salas,Elgin,62.6,111.13,95.25,136.08,342.46,Unlimited,SBD,M,
Boys,67.13,14,Zayden Jones,Manor New Tech,62.32,104.33,61.23,149.69,315.25,Unlimited,SBD,M,
Boys,67.13,15,Gavin Grantham,Luling,63.96,90.72,58.97,83.91,233.6,Unlimited,SBD,M,
Boys,67.13,DQ,Nate Grier,Manor New Tech,62.96,106.59,,,,Unlimited,SBD,M,
Boys,67.13,DQ,Josh Constancio,Del Valle,67.04,,,,,Unlimited,SBD,M,
Boys,67.13,DQ,Nathan Skeete,Universal City Randolph,66.22,,,,,Unlimited,SBD,M,
Boys,67.13,DQ,Blake Frye,Somerset,65.86,,,,,Unlimited,SBD,M,
Boys,67.13,DQ,Deigo Carmona,San Marcos,66.68,,,,,Unlimited,SBD,M,
Boys,67.13,DQ,Roy Tobias,San Marcos,67.13,,,,,Unlimited,SBD,M,
Boys,67.13,DQ,Adrian Garcia,Del Valle,67.13,,,,,Unlimited,SBD,M,
Boys,67.13,DQ,Adrian Panaigun,Bastrop,67.13,,,,,Unlimited,SBD,M,
Boys,67.13,DQ,Lucas Carbajal,Bastrop Cedar Creek,67.13,,,,,Unlimited,SBD,M,
Boys,67.13,DQ,Jaylen Mason,Killeen Harker Heights,67.13,,,,,Unlimited,SBD,M,
Boys,67.13,DQ,Trey Reyna,Giddings,67.13,,,,,Unlimited,SBD,M,
Boys,67.13,DQ,Kyle Montgomery,Giddings,67.13,,,,,Unlimited,SBD,M,
Boys,74.84,1,Alejandro Arroyo,Elgin,73.48,244.94,151.95,210.92,607.81,Unlimited,SBD,M,
Boys,74.84,2,Zander Bevers,Buda Johnson,74.39,222.26,145.15,188.24,555.65,Unlimited,SBD,M,
Boys,74.84,3,Jett Hickson,Buda Johnson,68.95,185.97,142.88,208.65,537.51,Unlimited,SBD,M,
Boys,74.84,4,Alex Silvert,Buda Johnson,73.48,188.24,133.81,208.65,530.7,Unlimited,SBD,M,
Boys,74.84,5,Adolfo Velasquez,College Station,73.84,188.24,124.74,195.04,508.02,Unlimited,SBD,M,
Boys,74.84,6,Elijah Facker,Bastrop Cedar Creek,74.84,170.1,111.13,224.53,505.76,Unlimited,SBD,M,
Boys,74.84,7,Luciano Arias,Taylor,73.94,183.7,124.74,192.78,501.22,Unlimited,SBD,M,
Boys,74.84,8,Nic Cones,Austin Lake Travis,71.49,181.44,108.86,208.65,498.95,Unlimited,SBD,M,
Boys,74.84,9,Gary Jefferson,Elgin,68.76,192.78,108.86,192.78,494.42,Unlimited,SBD,M,
Boys,74.84,10,Jarod Crouch,Buda Hays,73.75,190.51,108.86,183.7,483.08,Unlimited,SBD,M,
Boys,74.84,11,Jake Murphy,Austin Lake Travis,70.94,174.63,106.59,183.7,464.93,Unlimited,SBD,M,
Boys,74.84,12,Luis Morales,Austin Lake Travis,72.85,172.37,111.13,172.37,455.86,Unlimited,SBD,M,
Boys,74.84,13,Caleb McClain,Austin Lake Travis,68.4,163.29,90.72,199.58,453.59,Unlimited,SBD,M,
Boys,74.84,14,Ben Fountain,Austin Anderson,73.48,151.95,97.52,172.37,421.84,Unlimited,SBD,M,
Boys,74.84,15,Aidan Freeman,Luling,70.76,142.88,92.99,172.37,408.23,Unlimited,SBD,M,
Boys,74.84,16,Jose Torres,Bastrop Cedar Creek,68.4,149.69,97.52,149.69,396.89,Unlimited,SBD,M,
Boys,74.84,17,Samuel Rajski,Lago Vista,74.21,145.15,90.72,147.42,383.29,Unlimited,SBD,M,
Boys,74.84,18,Justin Parker,Manor,72.85,113.4,97.52,142.88,353.8,Unlimited,SBD,M,
Boys,74.84,19,Ahn Nguyen,Manor New Tech,69.58,111.13,83.91,154.22,349.27,Unlimited,SBD,M,
Boys,74.84,20,Alejandro Clavelo,Bastrop Cedar Creek,68.4,124.74,74.84,142.88,342.46,Unlimited,SBD,M,
Boys,74.84,DQ,Jose Barrueta,Del Valle,74.34,210.92,127.01,,,Unlimited,SBD,M,
Boys,74.84,DQ,Jonah Garcia,Pflugerville Connally,73.03,170.1,,,,Unlimited,SBD,M,
Boys,74.84,DQ,Angel Rodriguez,Manor,69.94,136.08,,,,Unlimited,SBD,M,
Boys,74.84,DQ,John Dowel,Giddings,73.57,192.78,,,,Unlimited,SBD,M,
Boys,74.84,DQ,Cable Matthews,Kyle Lehman,74.84,167.83,,,,Unlimited,SBD,M,
Boys,74.84,DQ,Mark Vandevere,Universal City Randolph,74.84,,,,,Unlimited,SBD,M,
Boys,82.1,1,Miguel Nunez,Elgin,79.83,272.16,161.03,233.6,666.78,Unlimited,SBD,M,
Boys,82.1,2,Omar Palacios,Elgin,79.83,229.06,145.15,219.99,594.21,Unlimited,SBD,M,
Boys,82.1,3,Axel Guel,Austin Lake Travis,78.02,224.53,129.27,235.87,589.67,Unlimited,SBD,M,
Boys,82.1,4,Brakaedon Smith,College Station,78.65,233.6,129.27,215.46,578.33,Unlimited,SBD,M,
Boys,82.1,5,Quinton Brooks,Universal City Randolph,77.02,201.85,136.08,213.19,551.11,Unlimited,SBD,M,
Boys,82.1,6,Isaac Pina,Luling,79.74,195.04,156.49,199.58,551.11,Unlimited,SBD,M,
Boys,82.1,7,Jake Johnson,Elgin,77.2,201.85,122.47,219.99,544.31,Unlimited,SBD,M,
Boys,82.1,8,Brandt Whitlow,Taylor,79.38,206.38,122.47,215.46,544.31,Unlimited,SBD,M,
Boys,82.1,9,Josh Webb,Pflugerville Connally,78.02,192.78,136.08,183.7,512.56,Unlimited,SBD,M,
Boys,82.1,10,Steve Nguyen,Manor New Tech,79.56,174.63,111.13,226.8,512.56,Unlimited,SBD,M,
Boys,82.1,11,Isaiah Trejo,Bastrop Cedar Creek,80.47,190.51,127.01,195.04,512.56,Unlimited,SBD,M,
Boys,82.1,12,Jack Vashaw,Austin Lake Travis,81.83,195.04,108.86,183.7,487.61,Unlimited,SBD,M,
Boys,82.1,13,Mo Bayo,Kyle Lehman,79.38,197.31,113.4,172.37,483.08,Unlimited,SBD,M,
Boys,82.1,14,Eric Johnson,Manor,81.1,154.22,124.74,204.12,483.08,Unlimited,SBD,M,
Boys,82.1,15,Isaac Martinez,Del Valle,80.01,165.56,104.33,183.7,453.59,Unlimited,SBD,M,
Boys,82.1,16,Julius Trujillo,Luling,81.83,163.29,92.99,174.63,430.91,Unlimited,SBD,M,
Boys,82.1,17,Antonio Cruz,Austin Anderson,78.02,138.35,83.91,172.37,394.63,Unlimited,SBD,M,
Boys,82.1,18,Tanner Pickering,Bastrop,78.02,136.08,92.99,156.49,385.55,Unlimited,SBD,M,
Boys,82.1,19,Anthony Sosa,Bastrop Cedar Creek,81.56,145.15,88.45,149.69,383.29,Unlimited,SBD,M,
Boys,82.1,20,Cedrick Green,Manor,79.83,122.47,83.91,172.37,378.75,Unlimited,SBD,M,
Boys,82.1,21,Jaxon Clingman,Lago Vista,76.2,142.88,83.91,113.4,340.19,Unlimited,SBD,M,
Boys,82.1,DQ,Zander Hernandez,Manor New Tech,80.47,,,,,Unlimited,SBD,M,
Boys,82.1,DQ,Kaden Nguyen,Pflugerville Connally,80.74,,,,,Unlimited,SBD,M,
Boys,82.1,DQ,Noah Saldivar,Austin Anderson,82.1,,,,,Unlimited,SBD,M,
Boys,82.1,DQ,Luis Castanon,Luling,82.1,,,,,Unlimited,SBD,M,
Boys,82.1,DQ,Conner Fleming,Kyle Lehman,82.1,,,,,Unlimited,SBD,M,
Boys,82.1,DQ,Justin Waters,Austin Anderson,78.47,183.7,102.06,,,Unlimited,SBD,M,
Boys,89.81,1,Melanio Perez,Elgin,84.37,301.64,174.63,267.62,743.89,Unlimited,SBD,M,
Boys,89.81,2,Malik Cotton,College Station,86.91,288.03,163.29,272.16,723.48,Unlimited,SBD,M,
Boys,89.81,3,Noah Baxter,Smithville,88.99,238.14,127.01,260.82,625.96,Unlimited,SBD,M,
Boys,89.81,4,Colbey Solis,Taylor,87.54,265.35,142.88,204.12,612.35,Unlimited,SBD,M,
Boys,89.81,5,Langston Strable,Universal City Randolph,88.72,210.92,170.1,219.99,601.01,Unlimited,SBD,M,
Boys,89.81,6,Jaydus Bell,Pflugerville Connally,85.73,219.99,138.35,238.14,596.47,Unlimited,SBD,M,
Boys,89.81,7,Sergio Rodriguez,Kyle Lehman,88.9,242.67,133.81,217.72,594.21,Unlimited,SBD,M,
Boys,89.81,8,Marcus Hernandez,Buda Hays,89.09,226.8,147.42,215.46,589.67,Unlimited,SBD,M,
Boys,89.81,9,I'zayah Young,San Marcos,89.45,215.46,142.88,231.33,589.67,Unlimited,SBD,M,
Boys,89.81,10,Joe Soto,Smithville,85.46,204.12,133.81,204.12,542.04,Unlimited,SBD,M,
Boys,89.81,11,Romeo Benitez Perez,Del Valle,89.49,208.65,142.88,190.51,542.04,Unlimited,SBD,M,
Boys,89.81,12,Jackson Clowdus,Elgin,86.18,197.31,136.08,204.12,537.51,Unlimited,SBD,M,
Boys,89.81,13,Timothy Boyd,Buda Johnson,82.19,226.8,117.93,188.24,532.97,Unlimited,SBD,M,
Boys,89.81,14,Diego Segura,Austin Lake Travis,82.28,199.58,124.74,208.65,532.97,Unlimited,SBD,M,
Boys,89.81,15,Rex Shoemaker,Giddings,85.46,206.38,129.27,183.7,519.36,Unlimited,SBD,M,
Boys,89.81,16,River Anderson,Austin Anderson,84.37,190.51,117.93,181.44,489.88,Unlimited,SBD,M,
Boys,89.81,17,Conor Burleson,Smithville,88,176.9,108.86,172.37,458.13,Unlimited,SBD,M,
Boys,89.81,18,Jace Hester,Lago Vista,88.45,183.7,104.33,163.29,451.32,Unlimited,SBD,M,
Boys,89.81,19,Kiefer Patterson,Buda Hays,83.55,147.42,102.06,188.24,437.72,Unlimited,SBD,M,
Boys,89.81,20,Jayden Box,Lago Vista,88.09,158.76,111.13,158.76,428.64,Unlimited,SBD,M,
Boys,89.81,21,Jackson Davenport,Bastrop Cedar Creek,89.72,163.29,90.72,165.56,419.57,Unlimited,SBD,M,
Boys,89.81,22,Blake Meredith,Lago Vista,84.91,161.03,86.18,167.83,415.04,Unlimited,SBD,M,
Boys,89.81,23,Job Hernandez,Comfort,85,136.08,79.38,158.76,374.21,Unlimited,SBD,M,
Boys,89.81,24,Kirk Campbell,Luling,83.64,131.54,81.65,151.95,365.14,Unlimited,SBD,M,
Boys,89.81,DQ,Diego Hernandez,Manor New Tech,87.54,131.54,,,,Unlimited,SBD,M,
Boys,89.81,DQ,Jake Gosselink,Bastrop,83.01,,,,,Unlimited,SBD,M,
Boys,89.81,DQ,Trent Miles,Bastrop,89.81,,,,,Unlimited,SBD,M,
Boys,89.81,DQ,Cesar Sandoval,Bastrop Cedar Creek,89.81,,,,,Unlimited,SBD,M,
Boys,89.81,DQ,Mark Heatley,Austin Anderson,89.81,,,,,Unlimited,SBD,M,
Boys,89.81,DQ,Brandon Emmons,Luling,89.81,,,,,Unlimited,SBD,M,
Boys,89.81,DQ,Jovon Pierre-Paul,Manor,89.81,,,,,Unlimited,SBD,M,
Boys,99.79,1,Sal Sanchez,Somerset,98.7,294.84,197.31,226.8,718.94,Unlimited,SBD,M,
Boys,99.79,2,Jaydon Sawyer,Elgin,97.98,219.99,158.76,263.08,641.83,Unlimited,SBD,M,
Boys,99.79,3,Kenneth Pease,San Marcos,99.06,233.6,142.88,263.08,639.57,Unlimited,SBD,M,
Boys,99.79,4,Chris Borja,Smithville,98.52,229.06,158.76,233.6,621.42,Unlimited,SBD,M,
Boys,99.79,5,Dayden Williams,Austin Anderson,98.79,219.99,117.93,226.8,564.72,Unlimited,SBD,M,
Boys,99.79,6,Josh Harmer,Kyle Lehman,97.52,215.46,138.35,199.58,553.38,Unlimited,SBD,M,
Boys,99.79,7,Grayden Burke,Lago Vista,95.62,183.7,138.35,229.06,551.11,Unlimited,SBD,M,
Boys,99.79,8,Michael Rajski,Austin Lake Travis,91.26,226.8,117.93,201.85,546.58,Unlimited,SBD,M,
Boys,99.79,9,Cyrus Falcon,Comfort,98.88,229.06,102.06,210.92,542.04,Unlimited,SBD,M,
Boys,99.79,10,Justin Baker,Pflugerville Connally,90.26,192.78,142.88,199.58,535.24,Unlimited,SBD,M,
Boys,99.79,11,Yousvani Trujuillo,Del Valle,96.62,185.97,122.47,226.8,535.24,Unlimited,SBD,M,
Boys,99.79,12,Angel Dilbert,Del Valle,99.65,190.51,136.08,208.65,535.24,Unlimited,SBD,M,
Boys,99.79,13,Adrian Ortiz,Kyle Lehman,93.89,183.7,124.74,204.12,512.56,Unlimited,SBD,M,
Boys,99.79,14,Asher McCain,Kyle Lehman,98.43,226.8,108.86,174.63,510.29,Unlimited,SBD,M,
Boys,99.79,15,Reilly Tinney,Comfort,93.53,183.7,115.67,199.58,498.95,Unlimited,SBD,M,
Boys,99.79,16,Max Lueck,Austin Lake Travis,96.8,192.78,115.67,183.7,492.15,Unlimited,SBD,M,
Boys,99.79,17,Alex Johnson,Manor New Tech,97.34,201.85,88.45,185.97,476.27,Unlimited,SBD,M,
Boys,99.79,18,Joshua Luna,Pflugerville Connally,96.62,188.24,104.33,176.9,469.47,Unlimited,SBD,M,
Boys,99.79,19,Eli Herrera,Manor New Tech,90.72,172.37,97.52,197.31,467.2,Unlimited,SBD,M,
Boys,99.79,20,Joel Diaz,Giddings,92.99,188.24,111.13,165.56,464.93,Unlimited,SBD,M,
Boys,99.79,21,Jose Almanza,Luling,89.9,181.44,104.33,172.37,458.13,Unlimited,SBD,M,
Boys,99.79,22,Eduardo Hernandez,Comfort,91.35,170.1,104.33,181.44,455.86,Unlimited,SBD,M,
Boys,99.79,23,Tristen Fox-Murrie,Buda Hays,98.97,156.49,92.99,199.58,449.06,Unlimited,SBD,M,
Boys,99.79,24,Coulter Wells,Austin Lake Travis,90.08,151.95,124.74,170.1,446.79,Unlimited,SBD,M,
Boys,99.79,25,Ty Birnbaum,Buda Hays,91.08,170.1,111.13,158.76,439.98,Unlimited,SBD,M,
Boys,99.79,26,Jessie Flores,Comfort,93.62,156.49,97.52,181.44,435.45,Unlimited,SBD,M,
Boys,99.79,27,Garrett Wilhelm,Smithville,97.89,136.08,106.59,156.49,399.16,Unlimited,SBD,M,
Boys,99.79,28,Andrew Davis,Lago Vista,91.26,129.27,74.84,181.44,385.55,Unlimited,SBD,M,
Boys,99.79,29,Bryan Robledo,Comfort,94.71,138.35,79.38,167.83,385.55,Unlimited,SBD,M,
Boys,99.79,30,Teague Ridgeway,Lago Vista,90.63,124.74,83.91,145.15,353.8,Unlimited,SBD,M,
Boys,99.79,DQ,Levi Lewis,Luling,99.79,,,,,Unlimited,SBD,M,
Boys,99.79,DQ,Brayden Harrison,Manor,99.79,,,,,Unlimited,SBD,M,
Boys,99.79,DQ,Liam Ponte,College Station,99.79,,,,,Unlimited,SBD,M,
Boys,109.77,1,Harper Hall,College Station,106.23,317.51,170.1,254.01,741.62,Unlimited,SBD,M,
Boys,109.77,2,Evan Seale,Buda Johnson,104.33,233.6,201.85,226.8,662.24,Unlimited,SBD,M,
Boys,109.77,3,Caden Stockdale,Smithville,100.33,240.4,151.95,244.94,637.3,Unlimited,SBD,M,
Boys,109.77,4,Hector Arradondo,Bastrop Cedar Creek,109.41,249.48,156.49,231.33,637.3,Unlimited,SBD,M,
Boys,109.77,5,Jeffery Love,Elgin,107.41,233.6,156.49,219.99,610.08,Unlimited,SBD,M,
Boys,109.77,6,Carson Hartranft,Giddings,106.87,251.74,151.95,204.12,607.81,Unlimited,SBD,M,
Boys,109.77,7,Isaac Garza,Giddings,105.05,249.48,142.88,199.58,591.94,Unlimited,SBD,M,
Boys,109.77,8,Maxwell Osareni,Manor,106.59,201.85,142.88,233.6,578.33,Unlimited,SBD,M,
Boys,109.77,9,Elias Okeefe,Austin Anderson,107.5,226.8,136.08,210.92,573.79,Unlimited,SBD,M,
Boys,109.77,10,Eli Willard,Comfort,108.05,242.67,129.27,190.51,562.45,Unlimited,SBD,M,
Boys,109.77,11,Ivan Garcia,Bartlett,99.88,215.46,124.74,201.85,542.04,Unlimited,SBD,M,
Boys,109.77,12,Zane Cooke,Austin Anderson,104.33,183.7,129.27,188.24,501.22,Unlimited,SBD,M,
Boys,109.77,13,Isaiah Sanchez,Taylor,105.69,174.63,111.13,174.63,460.4,Unlimited,SBD,M,
Boys,109.77,14,Carson Weikert,Austin Lake Travis,104.87,176.9,92.99,185.97,455.86,Unlimited,SBD,M,
Boys,109.77,15,Audie Faucett,Bartlett,103.42,183.7,81.65,188.24,453.59,Unlimited,SBD,M,
Boys,109.77,DQ,Jd Spurlock,Somerset,107.05,,,,,Unlimited,SBD,M,
Boys,109.77,DQ,Matthew Chabbaria,Buda Hays,104.87,,,,,Unlimited,SBD,M,
Boys,109.77,DQ,Gavin Tonche,Manor,100.97,199.58,108.86,,,Unlimited,SBD,M,
Boys,109.77,DQ,Micah Diggs,Kyle Lehman,109.77,,,,,Unlimited,SBD,M,
Boys,109.77,DQ,Tony Juarez,Bartlett,109.77,,,,,Unlimited,SBD,M,
Boys,109.77,DQ,Takae Augustine,Del Valle,109.77,,,,,Unlimited,SBD,M,
Boys,124.74,1,Taulepeti Valai,Universal City Randolph,117.03,285.76,201.85,226.8,714.41,Unlimited,SBD,M,
Boys,124.74,2,Thomas Gomez,Buda Johnson,117.93,240.4,174.63,226.8,641.83,Unlimited,SBD,M,
Boys,124.74,3,Wes Harris,Universal City Randolph,112.4,226.8,165.56,238.14,630.49,Unlimited,SBD,M,
Boys,124.74,4,Jessie Cuevas,San Marcos,121.93,244.94,142.88,204.12,591.94,Unlimited,SBD,M,
Boys,124.74,5,Edgar Chaparro,Bastrop Cedar Creek,115.58,224.53,142.88,219.99,587.4,Unlimited,SBD,M,
Boys,124.74,6,Javion Booker,Pflugerville Connally,113.85,215.46,158.76,204.12,578.33,Unlimited,SBD,M,
Boys,124.74,7,James Kerney,Killeen Harker Heights,115.3,226.8,142.88,192.78,562.45,Unlimited,SBD,M,
Boys,124.74,8,Archer Davis,Kyle Lehman,114.31,224.53,138.35,192.78,555.65,Unlimited,SBD,M,
Boys,124.74,9,Tyler Davis,Giddings,110.86,217.72,133.81,192.78,544.31,Unlimited,SBD,M,
Boys,124.74,10,Daniel Leon,Pflugerville Connally,120.2,183.7,142.88,215.46,542.04,Unlimited,SBD,M,
Boys,124.74,11,David Gallegos,Bartlett,115.67,201.85,108.86,215.46,526.17,Unlimited,SBD,M,
Boys,124.74,12,Jackson Cook,Lago Vista,115.03,204.12,115.67,199.58,519.36,Unlimited,SBD,M,
Boys,124.74,13,Daalon Mattocks,Manor,119.39,206.38,108.86,201.85,517.1,Unlimited,SBD,M,
Boys,124.74,14,Shawn Faddis,Taylor,112.94,192.78,113.4,174.63,480.81,Unlimited,SBD,M,
Boys,124.74,15,Aiden Weyel,Comfort,116.39,183.7,115.67,179.17,478.54,Unlimited,SBD,M,
Boys,124.74,16,Diego Aviles,Manor,110.22,165.56,108.86,195.04,469.47,Unlimited,SBD,M,
Boys,124.74,17,Zachary Huebner,Bartlett,113.85,179.17,88.45,174.63,442.25,Unlimited,SBD,M,
Boys,124.74,18,Jon Celcer,Lago Vista,124.74,158.76,117.93,165.56,442.25,Unlimited,SBD,M,
Boys,124.74,19,Ardian Vega,Lago Vista,121.02,147.42,79.38,170.1,396.89,Unlimited,SBD,M,
Boys,124.74,DQ,Alex Salazar,Luling,112.04,185.97,,,,Unlimited,SBD,M,
Boys,124.74,DQ,Abram Franz,Buda Johnson,122.02,238.14,,,,Unlimited,SBD,M,
Boys,124.74,DQ,Blas Mendez,Buda Hays,124.74,,,,,Unlimited,SBD,M,
Boys,124.74,DQ,Jayden Evans,Austin Anderson,110.22,192.78,108.86,,,Unlimited,SBD,M,
Boys,139.71,1,Ernest Alderete,Taylor,129.73,299.37,215.46,226.8,741.62,Unlimited,SBD,M,
Boys,139.71,2,Joe Stiggers,Elgin,135.81,233.6,142.88,265.35,641.83,Unlimited,SBD,M,
Boys,139.71,3,Peyton Dees,Giddings,134.17,251.74,156.49,213.19,621.42,Unlimited,SBD,M,
Boys,139.71,4,Yahir Alexander,Kyle Lehman,127.01,242.67,156.49,208.65,607.81,Unlimited,SBD,M,
Boys,139.71,5,Victor Cruz,Austin Lake Travis,135.35,226.8,147.42,213.19,587.4,Unlimited,SBD,M,
Boys,139.71,6,Nakia Wilkins-Lee,Manor,135.53,215.46,156.49,215.46,587.4,Unlimited,SBD,M,
Boys,139.71,7,Armani Colon,Killeen Harker Heights,132,210.92,161.03,183.7,555.65,Unlimited,SBD,M,
Boys,139.71,8,Patrick Ramirez,Killeen Harker Heights,128.19,208.65,124.74,204.12,537.51,Unlimited,SBD,M,
Boys,139.71,9,Felipe Constante,Bastrop Cedar Creek,128.64,142.88,102.06,163.29,408.23,Unlimited,SBD,M,
Boys,139.71,DQ,Jaxon Taylor,Bastrop,131.09,,,,,Unlimited,SBD,M,
Boys,139.71,DQ,Aiden Newbill,Pflugerville Connally,126.1,,,,,Unlimited,SBD,M,
Boys,139.71,DQ,Sebastian Vaquera,Pflugerville Connally,129.27,204.12,140.61,,,Unlimited,SBD,M,
Boys,139.71,DQ,Alex Garcia,Manor New Tech,139.71,,,,,Unlimited,SBD,M,
Boys,139.71+,1,Cooper Case,Round Rock Westwood,139.8,290.3,226.8,276.69,793.79,Unlimited,SBD,M,
Boys,139.71+,2,Robert Phifer,Del Valle,151.64,249.48,120.2,263.08,632.76,Unlimited,SBD,M,
Boys,139.71+,3,Luis Jaimes Arce,Del Valle,140.25,210.92,142.88,204.12,557.92,Unlimited,SBD,M,
Boys,139.71+,4,Alex Guerrero,Del Valle,141.93,183.7,131.54,174.63,489.88,Unlimited,SBD,M,
Boys,139.71+,5,Marvin Hatcher,Killeen Harker Heights,160.57,158.76,127.01,158.76,444.52,Unlimited,SBD,M,
Boys,139.71+,6,Noah Devon,Austin Anderson,148.78,156.49,108.86,158.76,424.11,Unlimited,SBD,M,
Boys,139.71+,DQ,Lance Jaramillo,Bastrop Cedar Creek,144.33,,,,,Unlimited,SBD,M,
Boys,139.71+,DQ,Drake McCoy,Elgin,165.47,,,,,Unlimited,SBD,M,
