Division,WeightClassKg,Place,Name,Team,BodyweightKg,Best3SquatKg,Best3BenchKg,Best3DeadliftKg,TotalKg,Equipment,Event,Sex
Girls,44.23,1,Ally Highful,Los Fresnos,43.14,136.08,49.9,117.93,303.91,Single-ply,SBD,F
Girls,44.23,2,Valeria Torres,Pharr Valley View,44.18,129.27,43.09,120.2,292.57,Single-ply,SBD,F
Girls,44.23,3,Lauren Aldape,Mercedes,42.37,104.33,45.36,115.67,265.35,Single-ply,SBD,F
Girls,44.23,4,Abby Silva,Edcouch-Elsa,43.68,104.33,45.36,106.59,256.28,Single-ply,SBD,F
Girls,44.23,5,Daniela Perez,Los Fresnos,44,92.99,49.9,111.13,254.01,Single-ply,SBD,F
Girls,44.23,6,Arielle Ruiz,Edcouch-Elsa,44,99.79,43.09,102.06,244.94,Single-ply,SBD,F
Girls,44.23,7,Valeria Pérez,Weslaco East,44,99.79,36.29,72.57,208.65,Single-ply,SBD,F
Girls,44.23,8,Marissa Rubio,Mission Sharyland,41.37,58.97,34.02,77.11,170.1,Single-ply,SBD,F
Girls,44.23,DQ,Natalia Pruneda,Pharr Valley View,44.04,92.99,,,,Single-ply,SBD,F
Girls,44.23,DQ,Adriana Villafuerte,Edinburg Idea College Prep,42,54.43,,,,Single-ply,SBD,F
Girls,47.85,1,Sophie Avila,Los Fresnos,46.81,136.08,65.77,154.22,356.07,Single-ply,SBD,F
Girls,47.85,2,Mandy Sanchez,Los Fresnos,47.81,113.4,58.97,124.74,297.1,Single-ply,SBD,F
Girls,47.85,3,Alyssa Tovar,Rio Hondo,47.45,86.18,43.09,102.06,231.33,Single-ply,SBD,F
Girls,47.85,4,Hayley Leal,Edcouch-Elsa,46.72,63.5,27.22,77.11,167.83,Single-ply,SBD,F
Girls,47.85,DQ,Leah Juarez,Edcouch-Elsa,47.63,,,,,Single-ply,SBD,F
Girls,47.85,DQ,Cristie Gonzalez,Edinburg Idea College Prep,47.45,,,,,Single-ply,SBD,F
Girls,51.94,1,Brissa Ramirez,Mission Sharyland,50.44,136.08,65.77,145.15,347,Single-ply,SBD,F
Girls,51.94,2,Joanna Philo,Los Fresnos,51.17,136.08,56.7,149.69,342.46,Single-ply,SBD,F
Girls,51.94,3,Abril Salinas,Pharr Valley View,51.75,147.42,56.7,129.27,333.39,Single-ply,SBD,F
Girls,51.94,4,Alexis Torres #2,Los Fresnos,50.58,113.4,65.77,145.15,324.32,Single-ply,SBD,F
Girls,51.94,5,Esmer Cruz,Edcouch-Elsa,51.26,122.47,52.16,115.67,290.3,Single-ply,SBD,F
Girls,51.94,6,Teressa Ibarra,Mission Sharyland,51.35,99.79,49.9,108.86,258.55,Single-ply,SBD,F
Girls,51.94,7,Alma Nieto,Edinburg Quest College Prep,51.94,92.99,34.02,120.2,247.21,Single-ply,SBD,F
Girls,51.94,8,Alexandria Canchola,McAllen,50.53,86.18,49.9,92.99,229.06,Single-ply,SBD,F
Girls,51.94,9,Irma Vela,McAllen Rowe,48.9,43.09,22.68,54.43,120.2,Single-ply,SBD,F
Girls,56.02,1,Miranda Acevedo,Edcouch-Elsa,54.43,136.08,58.97,133.81,328.85,Single-ply,SBD,F
Girls,56.02,2,Brianna Ruiz,Los Fresnos,54.66,142.88,52.16,127.01,322.05,Single-ply,SBD,F
Girls,56.02,3,Luz Hernandez,Weslaco East,54.43,131.54,43.09,131.54,306.17,Single-ply,SBD,F
Girls,56.02,4,Miranda Barraza,Edinburg,55.07,102.06,52.16,127.01,281.23,Single-ply,SBD,F
Girls,56.02,5,Destiny Vela,Weslaco East,53.52,108.86,38.56,102.06,249.48,Single-ply,SBD,F
Girls,56.02,6,Brianna Gutierrez,Mercedes,55.52,83.91,36.29,99.79,219.99,Single-ply,SBD,F
Girls,56.02,7,Jovanna Rangel,Edinburg Economedes,53.25,63.5,36.29,102.06,201.85,Single-ply,SBD,F
Girls,56.02,8,Aylin Rocillo,Edinburg Idea College Prep,55.79,65.77,34.02,81.65,181.44,Single-ply,SBD,F
Girls,56.02,9,Clarissa Guel,Edinburg Economedes,54.16,61.23,31.75,70.31,163.29,Single-ply,SBD,F
Girls,56.02,DQ,Alejarndra Cuellar,Pharr Valley View,55.47,113.4,,,,Single-ply,SBD,F
Girls,56.02,DQ,Jannay Garcia,Mercedes,55.79,,,,,Single-ply,SBD,F
Girls,56.02,DQ,Desma Palacios,Edinburg Idea College Prep,55.52,72.57,,,,Single-ply,SBD,F
Girls,60.1,1,Lorena Martinez,Los Fresnos,59.74,163.29,63.5,163.29,390.09,Single-ply,SBD,F
Girls,60.1,2,Aracely Rodriguez,Pharr Valley View,59.1,142.88,70.31,133.81,347,Single-ply,SBD,F
Girls,60.1,3,Brendalee Hernandez,Weslaco East,59.06,127.01,61.23,142.88,331.12,Single-ply,SBD,F
Girls,60.1,4,Kassidy Sanchez,Mercedes,59.87,120.2,52.16,138.35,310.71,Single-ply,SBD,F
Girls,60.1,5,Yesenia Valdez,Edinburg,56.97,124.74,54.43,124.74,303.91,Single-ply,SBD,F
Girls,60.1,6,Vero Alanis,Edinburg,58.06,106.59,61.23,108.86,276.69,Single-ply,SBD,F
Girls,60.1,7,Lori Celedon,McAllen Rowe,58.79,102.06,58.97,108.86,269.89,Single-ply,SBD,F
Girls,60.1,8,Pamela Arce,Edinburg,58.6,99.79,61.23,102.06,263.08,Single-ply,SBD,F
Girls,60.1,9,Lali Saldana,Rio Hondo,58.42,83.91,36.29,99.79,219.99,Single-ply,SBD,F
Girls,60.1,10,Odalys Serna,Edinburg Economedes,56.97,77.11,40.82,92.99,210.92,Single-ply,SBD,F
Girls,60.1,11,Julissa Guerrero,Edcouch-Elsa,59.28,81.65,36.29,90.72,208.65,Single-ply,SBD,F
Girls,60.1,DQ,Destiny Lazcano,Edcouch-Elsa,59.42,127.01,,,,Single-ply,SBD,F
Girls,60.1,DQ,Glenda Lopez,Pharr Valley View,59.87,,,,,Single-ply,SBD,F
Girls,60.1,DQ,Jocelyn Martinez,Pharr Valley View,57.74,131.54,,,,Single-ply,SBD,F
Girls,67.36,1,Julissa Torres,Los Fresnos,64.46,174.63,99.79,163.29,437.72,Single-ply,SBD,F
Girls,67.36,2,Stephanie Trevino,Los Fresnos,66.72,170.1,79.38,176.9,426.38,Single-ply,SBD,F
Girls,67.36,3,Claudia Rodriguez,Pharr Valley View,67.18,147.42,63.5,117.93,328.85,Single-ply,SBD,F
Girls,67.36,4,Jazmine Salinas,Mercedes,63.14,142.88,52.16,115.67,310.71,Single-ply,SBD,F
Girls,67.36,5,Cassandra Rodriguez,Pharr Valley View,66.81,111.13,61.23,99.79,272.16,Single-ply,SBD,F
Girls,67.36,6,Jasmine Gonzalez,Edinburg,66.68,102.06,45.36,113.4,260.82,Single-ply,SBD,F
Girls,67.36,7,Valeria Olmeda,McAllen,67.31,115.67,52.16,86.18,254.01,Single-ply,SBD,F
Girls,67.36,8,Eunice Gonzalez,Rio Hondo,61.46,90.72,45.36,102.06,238.14,Single-ply,SBD,F
Girls,67.36,9,Cynthia Serrato,Rio Hondo,63.96,70.31,38.56,97.52,206.38,Single-ply,SBD,F
Girls,67.36,10,Alyssa de la Garza,McAllen Rowe,66.32,77.11,36.29,86.18,199.58,Single-ply,SBD,F
Girls,67.36,11,Katherine Cardenas,McAllen,64.59,61.23,40.82,70.31,172.37,Single-ply,SBD,F
Girls,67.36,DQ,Jennifer De La Fuente,Mission Sharyland,67.31,,,,,Single-ply,SBD,F
Girls,67.36,DQ,Meg Garcia,Edcouch-Elsa,66.41,,,,,Single-ply,SBD,F
Girls,75.07,1,Julie Torres,Los Fresnos,74.3,167.83,79.38,172.37,419.57,Single-ply,SBD,F
Girls,75.07,2,Alexa Castellanos,Rio Hondo,70.85,156.49,68.04,120.2,344.73,Single-ply,SBD,F
Girls,75.07,3,Ariana Segura,Edcouch-Elsa,74.16,142.88,63.5,131.54,337.93,Single-ply,SBD,F
Girls,75.07,4,Marisela Gonzalez,Edinburg,74.12,115.67,72.57,129.27,317.51,Single-ply,SBD,F
Girls,75.07,5,Jaslyn Olivarez,McAllen,70.31,120.2,58.97,120.2,299.37,Single-ply,SBD,F
Girls,75.07,6,Mia Murphy,McAllen Rowe,71.03,102.06,49.9,106.59,258.55,Single-ply,SBD,F
Girls,75.07,7,Tamara Ochoa,Roma,72.3,95.25,43.09,102.06,240.4,Single-ply,SBD,F
Girls,75.07,8,Lorena Martinez,Edinburg Economedes,70.67,77.11,45.36,113.4,235.87,Single-ply,SBD,F
Girls,75.07,9,Liz Rodriguez,McAllen Memorial,71.94,79.38,52.16,104.33,235.87,Single-ply,SBD,F
Girls,75.07,10,Jordy Banda,Edinburg,70.03,88.45,43.09,99.79,231.33,Single-ply,SBD,F
Girls,75.07,11,Brandy Navarro,Edinburg,74.66,86.18,38.56,95.25,219.99,Single-ply,SBD,F
Girls,75.07,12,Salma Castaneda,Edinburg Quest College Prep,73.03,74.84,43.09,90.72,208.65,Single-ply,SBD,F
Girls,75.07,13,Natalia Marquez,Mercedes,68.72,74.84,31.75,74.84,181.44,Single-ply,SBD,F
Girls,75.07,DQ,Jessica Mendez,Mission Sharyland,68.13,127.01,,,,Single-ply,SBD,F
Girls,75.07,DQ,Ellie Abrego,Edinburg,70.08,99.79,,,,Single-ply,SBD,F
Girls,82.33,1,Jesed Castro,Los Fresnos,77.11,199.58,108.86,170.1,478.54,Single-ply,SBD,F
Girls,82.33,2,Alyssa Juarez,Weslaco East,81.65,163.29,68.04,142.88,374.21,Single-ply,SBD,F
Girls,82.33,3,Anyssa Barrientes,Rio Hondo,78.38,145.15,61.23,136.08,342.46,Single-ply,SBD,F
Girls,82.33,4,Lulu Lopez,Rio Hondo,77.11,129.27,68.04,124.74,322.05,Single-ply,SBD,F
Girls,82.33,5,Sadie Granados,Edcouch-Elsa,81.65,115.67,63.5,140.61,319.78,Single-ply,SBD,F
Girls,82.33,6,Jessica Flores,Edinburg,80.65,127.01,72.57,111.13,310.71,Single-ply,SBD,F
Girls,82.33,7,Katrina Mendez,Mission Sharyland,81.28,131.54,61.23,115.67,308.44,Single-ply,SBD,F
Girls,82.33,8,Alejandra Gonzalez,Edinburg,82.33,106.59,65.77,120.2,292.57,Single-ply,SBD,F
Girls,82.33,9,Priscilla Acosta,McAllen Rowe,79.74,115.67,56.7,108.86,281.23,Single-ply,SBD,F
Girls,82.33,10,Kassandra Rodriguez,McAllen,81.37,106.59,63.5,102.06,272.16,Single-ply,SBD,F
Girls,82.33,11,Gabriela Garcia,Roma,78.02,108.86,45.36,113.4,267.62,Single-ply,SBD,F
Girls,82.33,12,Selena Martinez,Edinburg Economedes,80.38,92.99,56.7,108.86,258.55,Single-ply,SBD,F
Girls,82.33,13,Julie Rivera,La Villa,82.33,61.23,40.82,72.57,174.63,Single-ply,SBD,F
Girls,90.04,1,Carolina De Leon,Weslaco East,89.81,183.7,74.84,147.42,405.97,Single-ply,SBD,F
Girls,90.04,2,Allison Villarreal,Edcouch-Elsa,89.18,149.69,74.84,149.69,374.21,Single-ply,SBD,F
Girls,90.04,3,Destinee Perez,Mercedes,86.27,136.08,56.7,133.81,326.59,Single-ply,SBD,F
Girls,90.04,4,Adelina Quintana,Rio Hondo,88.72,113.4,52.16,111.13,276.69,Single-ply,SBD,F
Girls,90.04,5,Olivia Mata,McAllen,86.91,99.79,65.77,104.33,269.89,Single-ply,SBD,F
Girls,90.04,DQ,Ruby Garza,Mercedes,87.45,,,,,Single-ply,SBD,F
Girls,100.02,1,Justine Guerrero,Edcouch-Elsa,99.56,167.83,65.77,131.54,365.14,Single-ply,SBD,F
Girls,100.02,2,Kassandra Chavez,Pharr Valley View,98.43,138.35,77.11,131.54,347,Single-ply,SBD,F
Girls,100.02,3,Miranda Lopez #2,Edcouch-Elsa,98.88,158.76,61.23,115.67,335.66,Single-ply,SBD,F
Girls,100.02,4,Brandy Gonzalez,Rio Hondo,99.97,142.88,65.77,124.74,333.39,Single-ply,SBD,F
Girls,100.02,5,Casey Najar,Rio Hondo,91.85,129.27,45.36,117.93,292.57,Single-ply,SBD,F
Girls,100.02+,1,Monica Gallegos,Rio Hondo,102.06,181.44,92.99,158.76,433.18,Single-ply,SBD,F
Girls,100.02+,2,Amber Estrada,Edcouch-Elsa,117.93,163.29,65.77,131.54,360.61,Single-ply,SBD,F
Girls,100.02+,3,Chasity Alvarez,McAllen Rowe,107.68,108.86,58.97,117.93,285.76,Single-ply,SBD,F
Girls,100.02+,4,Amanda Perez #3,La Villa,104.87,99.79,45.36,83.91,229.06,Single-ply,SBD,F
Girls,100.02+,5,Janel Reyes,Roma,116.66,68.04,36.29,86.18,190.51,Single-ply,SBD,F
Girls,100.02+,DQ,Monika Morales,Edinburg Idea College Prep,109.04,,,,,Single-ply,SBD,F
Girls,100.02+,DQ,Helen Ibarra,Edinburg Economedes,140.8,88.45,,,,Single-ply,SBD,F
Girls,100.02+,DQ,Arelly Rincon,Weslaco East,113.4,,,,,Single-ply,SBD,F
