Division,WeightClassKg,Place,Name,Team,BodyweightKg,Best3SquatKg,Best3BenchKg,Best3DeadliftKg,TotalKg,Equipment,Event,Sex,BirthDate
Boys,51.71,1,Brian Usrey,Bells,50.3,124.74,92.99,127.01,344.73,Unlimited,SBD,M,
Boys,51.71,2,Clark Smith,Pattonville Prairiland,48.26,83.91,52.16,108.86,244.94,Unlimited,SBD,M,
Boys,51.71,3,Evan Ewton,Denison,46.63,72.57,61.23,90.72,224.53,Unlimited,SBD,M,
Boys,51.71,4,John Mandeville,Denison,48.04,90.72,45.36,88.45,224.53,Unlimited,SBD,M,
Boys,55.79,1,Jace Fountain,Mount Vernon,55.75,165.56,83.91,170.1,419.57,Unlimited,SBD,M,
Boys,55.79,2,Knox Wilson,Van Alstyne,54.3,156.49,81.65,142.88,381.02,Unlimited,SBD,M,
Boys,55.79,3,Josh Rogers,Bells,55.7,133.81,92.99,147.42,374.21,Unlimited,SBD,M,
Boys,55.79,4,Tommy Thomas,Bells,54.57,83.91,56.7,115.67,256.28,Unlimited,SBD,M,
Boys,55.79,5,Connor Grady,Leonard,55.61,79.38,56.7,104.33,240.4,Unlimited,SBD,M,
Boys,55.79,6,Ashton Slaton,Celeste,54.88,56.7,56.7,102.06,215.46,Unlimited,SBD,M,
Boys,55.79,7,John Carter,Pattonville Prairiland,54.88,74.84,47.63,83.91,206.38,Unlimited,SBD,M,
Boys,55.79,DQ,Cole Julian,Commerce,54.16,90.72,,,,Unlimited,SBD,M,
Boys,59.87,1,Dre Patt,Honey Grove,58.47,192.78,99.79,190.51,483.08,Unlimited,SBD,M,
Boys,59.87,2,Conner Bakken,Farmersville,59.42,174.63,92.99,170.1,437.72,Unlimited,SBD,M,
Boys,59.87,3,Rafael Chavez,Gainesville,58.83,136.08,108.86,145.15,390.09,Unlimited,SBD,M,
Boys,59.87,4,Chris Ramirez,Commerce,59.38,145.15,72.57,136.08,353.8,Unlimited,SBD,M,
Boys,59.87,5,Menghy Ly,Emory Rains,57.92,124.74,77.11,129.27,331.12,Unlimited,SBD,M,
Boys,59.87,6,Konnor LaFountain,Paris,57.33,102.06,77.11,131.54,310.71,Unlimited,SBD,M,
Boys,59.87,7,Andrew Roach,Emory Rains,56.74,117.93,74.84,113.4,306.17,Unlimited,SBD,M,
Boys,59.87,8,Haven Keisler,Pattonville Prairiland,57.42,113.4,63.5,129.27,306.17,Unlimited,SBD,M,
Boys,59.87,9,Blaze Kinkade,Leonard,59.87,117.93,61.23,122.47,301.64,Unlimited,SBD,M,
Boys,59.87,10,Kavin Moore,Emory Rains,57.97,97.52,61.23,115.67,274.42,Unlimited,SBD,M,
Boys,59.87,DQ,Ethan Isbell,Grand Saline,58.24,,,,,Unlimited,SBD,M,
Boys,67.13,1,Rafe McComack,Farmersville,63.64,188.24,142.88,190.51,521.63,Unlimited,SBD,M,
Boys,67.13,2,Gordon Swartz,Farmersville,66.27,170.1,108.86,183.7,462.66,Unlimited,SBD,M,
Boys,67.13,3,Preston Underwood,Mount Vernon,66.81,183.7,106.59,165.56,455.86,Unlimited,SBD,M,
Boys,67.13,4,Kaden Dunn,Howe,64.32,154.22,113.4,183.7,451.32,Unlimited,SBD,M,
Boys,67.13,5,Yeray Penaloza,Farmersville,65.77,170.1,106.59,165.56,442.25,Unlimited,SBD,M,
Boys,67.13,6,Mason Banker,Honey Grove,67.13,181.44,90.72,165.56,437.72,Unlimited,SBD,M,
Boys,67.13,7,Krisztian Dennis,Mount Vernon,64.36,151.95,102.06,158.76,412.77,Unlimited,SBD,M,
Boys,67.13,8,Braydon Beck,Paris,64.5,161.03,104.33,147.42,412.77,Unlimited,SBD,M,
Boys,67.13,9,Christian Phillips,Van Alstyne,63.41,151.95,92.99,158.76,403.7,Unlimited,SBD,M,
Boys,67.13,10,Hayden Acevedo,Farmersville,65.82,163.29,88.45,151.95,403.7,Unlimited,SBD,M,
Boys,67.13,11,Austen Gordon,Pattonville Prairiland,64.59,158.76,90.72,149.69,399.16,Unlimited,SBD,M,
Boys,67.13,12,Luke Wymer,Leonard,64.91,149.69,102.06,136.08,387.82,Unlimited,SBD,M,
Boys,67.13,13,Nicolas Gennette,Farmersville,66.59,136.08,79.38,165.56,381.02,Unlimited,SBD,M,
Boys,67.13,14,Daniel Candelario,Mineola,61.37,138.35,86.18,149.69,374.21,Unlimited,SBD,M,
Boys,67.13,15,Case Carson,Van Alstyne,65.36,129.27,83.91,158.76,371.95,Unlimited,SBD,M,
Boys,67.13,16,Drake McComb,Pattonville Prairiland,64.59,140.61,72.57,140.61,353.8,Unlimited,SBD,M,
Boys,67.13,17,Leland Cortez,Farmersville,65.54,138.35,65.77,149.69,353.8,Unlimited,SBD,M,
Boys,67.13,18,Jj Mitchell,Celeste,63.73,106.59,65.77,165.56,337.93,Unlimited,SBD,M,
Boys,67.13,19,Maddox Underwood,Leonard,67.13,122.47,83.91,129.27,335.66,Unlimited,SBD,M,
Boys,67.13,20,Alden Simmons,Emory Rains,64.27,108.86,77.11,115.67,301.64,Unlimited,SBD,M,
Boys,67.13,21,Devin Weaver,Bells,62.73,99.79,65.77,129.27,294.84,Unlimited,SBD,M,
Boys,67.13,22,Jack Miller,Emory Rains,66.86,97.52,61.23,127.01,285.76,Unlimited,SBD,M,
Boys,67.13,23,Will Hall,Cooper,67,115.67,61.23,102.06,278.96,Unlimited,SBD,M,
Boys,67.13,24,Abymael Rodriguez,Mount Vernon,65.14,83.91,56.7,122.47,263.08,Unlimited,SBD,M,
Boys,67.13,DQ,Bryan Arrington,Quinlan Boles,64.77,,,,,Unlimited,SBD,M,
Boys,67.13,DQ,Miguel Castillo,Gainesville,64.46,117.93,,,,Unlimited,SBD,M,
Boys,74.84,1,Ethan Hunt,Denison,72.26,210.92,136.08,235.87,582.87,Unlimited,SBD,M,
Boys,74.84,2,Remingten Wyatt,Leonard,71.03,167.83,120.2,179.17,467.2,Unlimited,SBD,M,
Boys,74.84,3,Nathaniel Martinez,Farmersville,73.8,172.37,111.13,183.7,467.2,Unlimited,SBD,M,
Boys,74.84,4,Kyle Foster,Commerce,71.8,170.1,102.06,170.1,442.25,Unlimited,SBD,M,
Boys,74.84,5,Jaxon Brown,Bells,71.85,147.42,102.06,188.24,437.72,Unlimited,SBD,M,
Boys,74.84,6,Chris Torres,Howe,74.43,188.24,92.99,149.69,430.91,Unlimited,SBD,M,
Boys,74.84,7,Nate Clark,Farmersville,70.85,151.95,102.06,165.56,419.57,Unlimited,SBD,M,
Boys,74.84,8,Luke McGehee,Bells,71.76,156.49,74.84,174.63,405.97,Unlimited,SBD,M,
Boys,74.84,9,Breyden Tull,Farmersville,73.21,149.69,102.06,145.15,396.89,Unlimited,SBD,M,
Boys,74.84,10,Blaine Harris,Mineola,73.39,138.35,104.33,154.22,396.89,Unlimited,SBD,M,
Boys,74.84,11,Jesse Mercado,Bells,72.67,142.88,92.99,154.22,390.09,Unlimited,SBD,M,
Boys,74.84,12,Brandon Moore,Celeste,72.67,136.08,92.99,133.81,362.87,Unlimited,SBD,M,
Boys,74.84,13,Emilio Meza,Farmersville,69.04,142.88,65.77,145.15,353.8,Unlimited,SBD,M,
Boys,74.84,14,Charles Fuhr,Howe,69.99,129.27,83.91,136.08,349.27,Unlimited,SBD,M,
Boys,74.84,15,Alex Moreno,Leonard,69.99,124.74,83.91,124.74,333.39,Unlimited,SBD,M,
Boys,74.84,16,Adam Anderson,Pattonville Prairiland,68.22,111.13,77.11,140.61,328.85,Unlimited,SBD,M,
Boys,74.84,17,Chance Skinner,Van Alstyne,70.99,133.81,61.23,124.74,319.78,Unlimited,SBD,M,
Boys,74.84,18,Colby Witt,Emory Rains,69.04,106.59,81.65,124.74,312.98,Unlimited,SBD,M,
Boys,74.84,19,Jacob Taylor,Emory Rains,68.86,106.59,77.11,122.47,306.17,Unlimited,SBD,M,
Boys,74.84,20,Raul Olvera,Gainesville,71.99,106.59,68.04,124.74,299.37,Unlimited,SBD,M,
Boys,74.84,21,Carson Patterson,Emory Rains,74.8,92.99,56.7,111.13,260.82,Unlimited,SBD,M,
Boys,74.84,22,Daniel Monsalvez,Celeste,73.44,83.91,61.23,113.4,258.55,Unlimited,SBD,M,
Boys,74.84,23,Jackson Ayvar,Celeste,69.31,74.84,61.23,102.06,238.14,Unlimited,SBD,M,
Boys,74.84,DQ,Jessie Sanford,Commerce,72.62,111.13,,,,Unlimited,SBD,M,
Boys,74.84,DQ,Antony Rivera,Farmersville,69.31,154.22,,,,Unlimited,SBD,M,
Boys,82.1,1,Michael Griger,Denison,81.65,204.12,165.56,258.55,628.23,Unlimited,SBD,M,
Boys,82.1,2,Medellin Moses,Mineola,81.01,219.99,158.76,219.99,598.74,Unlimited,SBD,M,
Boys,82.1,3,Forlan Ramos,Mount Vernon,81.96,183.7,142.88,192.78,519.36,Unlimited,SBD,M,
Boys,82.1,4,Luke Horning,Denison,80.47,190.51,124.74,199.58,514.83,Unlimited,SBD,M,
Boys,82.1,5,Buddy Posey,Paris North Lamar,78.97,183.7,131.54,197.31,512.56,Unlimited,SBD,M,
Boys,82.1,6,Malaki Tillery,Paris North Lamar,77.61,197.31,113.4,192.78,503.49,Unlimited,SBD,M,
Boys,82.1,7,Parker Wilcox,Commerce,81.01,167.83,102.06,197.31,467.2,Unlimited,SBD,M,
Boys,82.1,8,Austin Blalock,Mineola,77.38,181.44,115.67,158.76,455.86,Unlimited,SBD,M,
Boys,82.1,9,Brandon Palmer,Denison,78.79,165.56,113.4,165.56,444.52,Unlimited,SBD,M,
Boys,82.1,10,James Cowart,Howe,79.79,172.37,111.13,151.95,435.45,Unlimited,SBD,M,
Boys,82.1,11,Parker Bryan,Howe,77.66,147.42,102.06,165.56,415.04,Unlimited,SBD,M,
Boys,82.1,12,Oliver Kincannon,Denison,75.52,147.42,102.06,158.76,408.23,Unlimited,SBD,M,
Boys,82.1,13,Beau Bowie,Van Alstyne,79.11,136.08,79.38,131.54,347,Unlimited,SBD,M,
Boys,82.1,14,Kamron Ely,Emory Rains,81.01,131.54,86.18,127.01,344.73,Unlimited,SBD,M,
Boys,82.1,15,Alex Martin,Celeste,78.47,147.42,70.31,111.13,328.85,Unlimited,SBD,M,
Boys,82.1,16,Keegan Galbraith,Pattonville Prairiland,75.25,111.13,83.91,120.2,315.25,Unlimited,SBD,M,
Boys,82.1,17,Titus Oliver,Paris North Lamar,76.07,113.4,83.91,113.4,310.71,Unlimited,SBD,M,
Boys,82.1,18,Kevin Barry,Celeste,79.38,115.67,65.77,127.01,308.44,Unlimited,SBD,M,
Boys,82.1,19,Antonio Nava,Gainesville,76.34,86.18,70.31,113.4,269.89,Unlimited,SBD,M,
Boys,82.1,DQ,Kyle Greve,Van Alstyne,81.87,,,,,Unlimited,SBD,M,
Boys,82.1,DQ,Colton McCaslin,Van Alstyne,79.42,,,,,Unlimited,SBD,M,
Boys,89.81,1,Caiden Moore,Mount Vernon,87.82,238.14,201.85,242.67,682.66,Unlimited,SBD,M,
Boys,89.81,2,Austin Crawley,Denison,86.32,201.85,136.08,210.92,548.85,Unlimited,SBD,M,
Boys,89.81,3,Rhett Bestul,Paris North Lamar,83.46,201.85,136.08,206.38,544.31,Unlimited,SBD,M,
Boys,89.81,4,Lachaunston Grigsby,Paris,86.32,195.04,113.4,235.87,544.31,Unlimited,SBD,M,
Boys,89.81,5,Josh Cordell,Bells,85.14,206.38,129.27,197.31,532.97,Unlimited,SBD,M,
Boys,89.81,6,Damian Gonzalez,Farmersville,84.41,199.58,131.54,192.78,523.9,Unlimited,SBD,M,
Boys,89.81,7,Kobe Patt,Honey Grove,85.55,197.31,127.01,188.24,512.56,Unlimited,SBD,M,
Boys,89.81,8,Jesse Troy,Paris North Lamar,84.78,156.49,136.08,213.19,505.76,Unlimited,SBD,M,
Boys,89.81,9,Mahlon Walker,Howe,88.31,183.7,120.2,174.63,478.54,Unlimited,SBD,M,
Boys,89.81,10,Brady Banker,Honey Grove,86.18,181.44,104.33,181.44,467.2,Unlimited,SBD,M,
Boys,89.81,11,Carson Blalock,Emory Rains,87.36,165.56,102.06,181.44,449.06,Unlimited,SBD,M,
Boys,89.81,12,David Roush,Cooper,86.68,165.56,102.06,165.56,433.18,Unlimited,SBD,M,
Boys,89.81,13,David Springer,Emory Rains,89.68,145.15,113.4,167.83,426.38,Unlimited,SBD,M,
Boys,89.81,14,Dt Morgan,Paris,83.69,151.95,83.91,181.44,417.3,Unlimited,SBD,M,
Boys,89.81,15,Brian Avitud,Gainesville,83.6,161.03,86.18,161.03,408.23,Unlimited,SBD,M,
Boys,89.81,16,Oswaldo Cisneros,Commerce,87.09,151.95,83.91,165.56,401.43,Unlimited,SBD,M,
Boys,89.81,17,Dash Hewitt,Bells,84.5,142.88,83.91,165.56,392.36,Unlimited,SBD,M,
Boys,89.81,18,Jason Jones,Emory Rains,84.82,151.95,83.91,147.42,383.29,Unlimited,SBD,M,
Boys,89.81,19,Landen Floyd,Leonard,86.77,151.95,95.25,124.74,371.95,Unlimited,SBD,M,
Boys,89.81,20,Braxton Bailey,Van Alstyne,85.41,163.29,79.38,127.01,369.68,Unlimited,SBD,M,
Boys,89.81,DQ,Ethan Parham,Pattonville Prairiland,85.23,,,,,Unlimited,SBD,M,
Boys,89.81,DQ,Devon Jeffries,Denison,87.27,267.62,,,,Unlimited,SBD,M,
Boys,99.79,1,Braylin Garcia,Leonard,99.38,256.28,181.44,217.72,655.44,Unlimited,SBD,M,
Boys,99.79,2,Gabe Lewis,Grand Saline,98.97,249.48,156.49,231.33,637.3,Unlimited,SBD,M,
Boys,99.79,3,Caden King,Bells,95.84,217.72,156.49,244.94,619.15,Unlimited,SBD,M,
Boys,99.79,4,Francisco Elizalde,Grand Saline,92.44,226.8,142.88,242.67,612.35,Unlimited,SBD,M,
Boys,99.79,5,Levi Beavers,Honey Grove,96.75,210.92,161.03,219.99,591.94,Unlimited,SBD,M,
Boys,99.79,6,Maliek Harris,Leonard,96.21,224.53,142.88,208.65,576.06,Unlimited,SBD,M,
Boys,99.79,7,Matthew Roland,Paris,95.21,215.46,151.95,206.38,573.79,Unlimited,SBD,M,
Boys,99.79,8,Markease Aubrey,Commerce,99.79,226.8,147.42,199.58,573.79,Unlimited,SBD,M,
Boys,99.79,9,Carlos Serrano,Commerce,94.53,208.65,154.22,206.38,569.26,Unlimited,SBD,M,
Boys,99.79,10,Ozzy Granado,Quinlan Boles,96.52,204.12,129.27,208.65,542.04,Unlimited,SBD,M,
Boys,99.79,11,Gabe McMillen,Denison,91.58,192.78,124.74,204.12,521.63,Unlimited,SBD,M,
Boys,99.79,12,Juan Villanueva,Mineola,98.93,195.04,122.47,201.85,519.36,Unlimited,SBD,M,
Boys,99.79,13,Charles Turner,Howe,96.39,206.38,122.47,174.63,503.49,Unlimited,SBD,M,
Boys,99.79,14,Chance Cranford,Commerce,99.79,183.7,117.93,174.63,476.27,Unlimited,SBD,M,
Boys,99.79,15,Chandler Holman,Leonard,90.22,183.7,115.67,170.1,469.47,Unlimited,SBD,M,
Boys,99.79,16,Joshua Fountain,Mount Vernon,90.72,183.7,102.06,183.7,469.47,Unlimited,SBD,M,
Boys,99.79,17,Xykoda Dorsey,Mount Vernon,97.75,170.1,106.59,176.9,453.59,Unlimited,SBD,M,
Boys,99.79,18,Kade Mathis,Van Alstyne,92.49,183.7,102.06,161.03,446.79,Unlimited,SBD,M,
Boys,99.79,19,Dillon Patterson,Howe,95.21,183.7,104.33,156.49,444.52,Unlimited,SBD,M,
Boys,99.79,20,John Rincon,Gainesville,94.94,170.1,111.13,161.03,442.25,Unlimited,SBD,M,
Boys,99.79,21,Conner Woods,Pattonville Prairiland,90.17,131.54,111.13,174.63,417.3,Unlimited,SBD,M,
Boys,99.79,22,Gavin Rodriguez,Grand Saline,93.62,142.88,115.67,156.49,415.04,Unlimited,SBD,M,
Boys,99.79,23,Cayden Coffey,Celeste,91.26,117.93,72.57,129.27,319.78,Unlimited,SBD,M,
Boys,99.79,24,Jackson Ferrier,Celeste,94.48,104.33,88.45,106.59,299.37,Unlimited,SBD,M,
Boys,99.79,DQ,Tate Quinlan,Farmersville,97.61,195.04,,,,Unlimited,SBD,M,
Boys,99.79,DQ,Kaison Bolin,Grand Saline,89.99,174.63,,,,Unlimited,SBD,M,
Boys,99.79,DQ,Will Sims,Grand Saline,95.16,,,,,Unlimited,SBD,M,
Boys,109.77,1,Diego Capetillo,Farmersville,103.1,267.62,183.7,274.42,725.75,Unlimited,SBD,M,
Boys,109.77,2,Cooper Duce,Denison,109.77,240.4,206.38,226.8,673.58,Unlimited,SBD,M,
Boys,109.77,3,Carsen Cox,Paris,107.82,247.21,129.27,242.67,619.15,Unlimited,SBD,M,
Boys,109.77,4,Brody Mahan,Honey Grove,100.47,226.8,158.76,226.8,612.35,Unlimited,SBD,M,
Boys,109.77,5,Orasio Juarez,Farmersville,108.54,222.26,147.42,217.72,587.4,Unlimited,SBD,M,
Boys,109.77,6,Jadden Coleman,Commerce,109.59,226.8,149.69,206.38,582.87,Unlimited,SBD,M,
Boys,109.77,7,Bryson Myers,Mineola,105.55,222.26,147.42,195.04,564.72,Unlimited,SBD,M,
Boys,109.77,8,Houston Beebe,Leonard,102.42,201.85,127.01,181.44,510.29,Unlimited,SBD,M,
Boys,109.77,9,Robert Malone,Commerce,103.06,199.58,136.08,165.56,501.22,Unlimited,SBD,M,
Boys,109.77,10,Diego Merino,Paris,101.02,201.85,124.74,165.56,492.15,Unlimited,SBD,M,
Boys,109.77,11,Carson Thompson,Leonard,105.6,192.78,136.08,163.29,492.15,Unlimited,SBD,M,
Boys,109.77,12,Ian Woodroof,Paris,106.96,179.17,129.27,170.1,478.54,Unlimited,SBD,M,
Boys,109.77,13,Nathan Dempsey,Gainesville,102.74,185.97,102.06,149.69,437.72,Unlimited,SBD,M,
Boys,109.77,14,Tyler Hoskison,Cooper,101.15,142.88,74.84,111.13,328.85,Unlimited,SBD,M,
Boys,109.77,15,Kevin Ugalde,Cooper,102.06,133.81,83.91,111.13,328.85,Unlimited,SBD,M,
Boys,109.77,DQ,Lane Castruita,Gainesville,100.47,72.57,,,,Unlimited,SBD,M,
Boys,124.74,1,Jason Boyd,Bells,110.22,272.16,151.95,222.26,646.37,Unlimited,SBD,M,
Boys,124.74,2,Javaryon Brumsey,Mineola,112.35,226.8,136.08,208.65,571.53,Unlimited,SBD,M,
Boys,124.74,3,Tate Banker,Honey Grove,116.12,235.87,133.81,195.04,564.72,Unlimited,SBD,M,
Boys,124.74,4,Caleb Cox,Denison,110.81,204.12,142.88,204.12,551.11,Unlimited,SBD,M,
Boys,124.74,5,Caleb Akins,Denison,116.26,192.78,147.42,183.7,523.9,Unlimited,SBD,M,
Boys,124.74,6,Michael Wiemer,Howe,111.58,206.38,124.74,176.9,508.02,Unlimited,SBD,M,
Boys,124.74,7,Gage Harmon,Celeste,110.18,183.7,147.42,167.83,498.95,Unlimited,SBD,M,
Boys,124.74,8,Jasen Amix,Farmersville,110.81,174.63,127.01,179.17,480.81,Unlimited,SBD,M,
Boys,124.74,9,Jacori Hearn,Commerce,120.02,190.51,120.2,170.1,480.81,Unlimited,SBD,M,
Boys,124.74,10,Peyton Sprowl,Van Alstyne,119.34,192.78,102.06,170.1,464.93,Unlimited,SBD,M,
Boys,124.74,11,Gio Cobarrubio,Farmersville,109.86,147.42,97.52,161.03,405.97,Unlimited,SBD,M,
Boys,124.74,12,Blue Schlatt,Paris North Lamar,110.99,133.81,90.72,131.54,356.07,Unlimited,SBD,M,
Boys,139.71,1,Jeremiah Smith,Paris,125.01,238.14,183.7,260.82,682.66,Unlimited,SBD,M,
Boys,139.71,2,Nathan Orrick,Denison,137.94,235.87,195.04,249.48,680.39,Unlimited,SBD,M,
Boys,139.71,3,Seth Riddle,Commerce,127.6,229.06,154.22,238.14,621.42,Unlimited,SBD,M,
Boys,139.71,4,Mark Vasquez,Farmersville,129.59,233.6,158.76,222.26,614.62,Unlimited,SBD,M,
Boys,139.71,5,Juan Cervantes,Mineola,137.62,219.99,161.03,199.58,580.6,Unlimited,SBD,M,
Boys,139.71,6,Fitchik Wallace,Paris,125.37,226.8,142.88,188.24,557.92,Unlimited,SBD,M,
Boys,139.71,7,Jayden Galindo,Honey Grove,131.77,238.14,136.08,183.7,557.92,Unlimited,SBD,M,
Boys,139.71,8,Noah Roten,Denison,135.31,201.85,156.49,183.7,542.04,Unlimited,SBD,M,
